collinearityR-vignette • collinearityR
…
      collinearityR-vignette.Rmd

Identify multicollinearity issues by correlation, VIF, and visualizations. The collinearityR package is designed for beginners of R who want to identify multicollinearity issues by applying a simple function. It automates the process of building a proper correlation matrix, creating correlation heat map and identifying pairwise highly correlated variables.

This document introduces you to collinearityR’s basic set of tools and demonstrates how to apply them to data frames.

Data: mpg

We will use the data set mpg from the ggplot2 package to explore the multicollinearity tools of collinearityR. This dataset contains 234 observations and 11 variables.

data <- ggplot2::mpg
dim(data)
#> [1] 234  11
data
#> # A tibble: 234 x 11
#>    manufacturer model      displ  year   cyl trans drv     cty   hwy fl    class
#>    <chr>        <chr>      <dbl> <int> <int> <chr> <chr> <int> <int> <chr> <chr>
#>  1 audi         a4           1.8  1999     4 auto~ f        18    29 p     comp~
#>  2 audi         a4           1.8  1999     4 manu~ f        21    29 p     comp~
#>  3 audi         a4           2    2008     4 manu~ f        20    31 p     comp~
#>  4 audi         a4           2    2008     4 auto~ f        21    30 p     comp~
#>  5 audi         a4           2.8  1999     6 auto~ f        16    26 p     comp~
#>  6 audi         a4           2.8  1999     6 manu~ f        18    26 p     comp~
#>  7 audi         a4           3.1  2008     6 auto~ f        18    27 p     comp~
#>  8 audi         a4 quattro   1.8  1999     4 manu~ 4        18    26 p     comp~
#>  9 audi         a4 quattro   1.8  1999     4 auto~ 4        16    25 p     comp~
#> 10 audi         a4 quattro   2    2008     4 manu~ 4        20    28 p     comp~
#> # ... with 224 more rows

Correlation Matrix and its Longer Form

corr_matrix() allows you to calculate the Pearson correlation coefficients for all numeric variables. Moreover, you can round the outcome to the desired decimals. The output is a generic correlation matrix and its longer form, so you can decide which form you can use to directly plot a heatmap without further data manipulation.

For example, we can calculate the correlation matrix and its longer form using all the numerical columns in mpg.

library(collinearityR)

corr_matrix(data, decimals = 2)[1]
#> [[1]]
#> # A tibble: 25 x 4
#>    variable1 variable2 correlation rounded_corr
#>    <chr>     <chr>           <dbl>        <dbl>
#>  1 displ     displ         1               1   
#>  2 displ     year          0.148           0.15
#>  3 displ     cyl           0.930           0.93
#>  4 displ     cty          -0.799          -0.8 
#>  5 displ     hwy          -0.766          -0.77
#>  6 year      displ         0.148           0.15
#>  7 year      year          1               1   
#>  8 year      cyl           0.122           0.12
#>  9 year      cty          -0.0372         -0.04
#> 10 year      hwy           0.00216         0   
#> # ... with 15 more rows
…
